................
----------------------------------------------------------------------
Ran 16 tests in 0.002s

OK
Name               Stmts   Miss Branch BrPart  Cover   Missing
--------------------------------------------------------------
Diplomacy.py          88      0     62      0   100%
TestDiplomacy.py      88      0      4      1    99%   139->exit
--------------------------------------------------------------
TOTAL                176      0     66      1    99%
